{
  "project_info": {
    "project_number": "1032292615683",
    "firebase_url": "https://panorama-afa9a.firebaseio.com",
    "project_id": "panorama-afa9a",
    "storage_bucket": "panorama-afa9a.appspot.com"
  },
  "client": [
    {
      "client_info": {
        "mobilesdk_app_id": "1:1032292615683:android:6e16a66ea5c90309",
        "android_client_info": {
          "package_name": "com.panoramanh"
        }
      },
      "oauth_client": [
        {
          "client_id": "1032292615683-bvkjgippre78ij26fptat3nr1prn90f3.apps.googleusercontent.com",
          "client_type": 3
        }
      ],
      "api_key": [
        {
          "current_key": "AIzaSyDrFuECStTkBmseojFWjYDrvwfHNWB4C6g"
        }
      ],
      "services": {
        "analytics_service": {
          "status": 1
        },
        "appinvite_service": {
          "status": 1,
          "other_platform_oauth_client": []
        },
        "ads_service": {
          "status": 2
        }
      }
    }
  ],
  "configuration_version": "1"
}